<?xml version="1.0" encoding="UTF-8"?>
<svg xmlns="http://www.w3.org/2000/svg" xmlns:xlink="http://www.w3.org/1999/xlink" width="10pt" height="10pt" viewBox="0 0 10 10" version="1.1">
<defs>
<g>
<symbol overflow="visible" id="glyph0-0">
<path style="stroke:none;" d="M 6.28125 -6.75 C 6.359375 -6.890625 6.359375 -6.90625 6.359375 -6.9375 C 6.359375 -7.015625 6.296875 -7.140625 6.15625 -7.140625 C 6.046875 -7.140625 6.015625 -7.078125 5.9375 -6.9375 L 1.46875 1.765625 C 1.390625 1.90625 1.390625 1.921875 1.390625 1.953125 C 1.390625 2.03125 1.453125 2.15625 1.578125 2.15625 C 1.703125 2.15625 1.734375 2.09375 1.796875 1.953125 Z M 6.28125 -6.75 "/>
</symbol>
<symbol overflow="visible" id="glyph0-1">
<path style="stroke:none;" d="M 9.046875 -2.296875 C 9.234375 -2.296875 9.40625 -2.296875 9.40625 -2.5 C 9.40625 -2.6875 9.234375 -2.6875 9.046875 -2.6875 L 1.640625 -2.6875 C 2.1875 -3.109375 2.46875 -3.515625 2.546875 -3.65625 C 2.984375 -4.34375 3.078125 -4.96875 3.078125 -4.96875 C 3.078125 -5.09375 2.953125 -5.09375 2.875 -5.09375 C 2.703125 -5.09375 2.6875 -5.078125 2.65625 -4.890625 C 2.421875 -3.921875 1.828125 -3.09375 0.703125 -2.625 C 0.59375 -2.578125 0.5625 -2.5625 0.5625 -2.5 C 0.5625 -2.421875 0.609375 -2.40625 0.703125 -2.359375 C 1.75 -1.9375 2.40625 -1.15625 2.65625 -0.046875 C 2.6875 0.078125 2.703125 0.109375 2.875 0.109375 C 2.953125 0.109375 3.078125 0.109375 3.078125 -0.015625 C 3.078125 -0.03125 2.984375 -0.65625 2.5625 -1.328125 C 2.359375 -1.625 2.078125 -1.96875 1.640625 -2.296875 Z M 9.046875 -2.296875 "/>
</symbol>
</g>
</defs>
<g id="surface1">
<g style="fill:rgb(0%,0%,0%);fill-opacity:1;">
  <use xlink:href="#glyph0-0" x="-0.283984" y="7.76602"/>
  <use xlink:href="#glyph0-1" x="-0.283984" y="7.76602"/>
</g>
</g>
</svg>
